%YAML 1.1
%TAG !u! tag:unity3d.com,2011:
--- !u!29 &1
OcclusionCullingSettings:
  m_ObjectHideFlags: 0
  serializedVersion: 2
  m_OcclusionBakeSettings:
    smallestOccluder: 5
    smallestHole: 0.25
    backfaceThreshold: 100
  m_SceneGUID: 00000000000000000000000000000000
  m_OcclusionCullingData: {fileID: 0}
--- !u!104 &2
RenderSettings:
  m_ObjectHideFlags: 0
  serializedVersion: 9
  m_Fog: 0
  m_FogColor: {r: 0.5, g: 0.5, b: 0.5, a: 1}
  m_FogMode: 3
  m_FogDensity: 0.01
  m_LinearFogStart: 0
  m_LinearFogEnd: 300
  m_AmbientSkyColor: {r: 0.212, g: 0.227, b: 0.259, a: 1}
  m_AmbientEquatorColor: {r: 0.114, g: 0.125, b: 0.133, a: 1}
  m_AmbientGroundColor: {r: 0.047, g: 0.043, b: 0.035, a: 1}
  m_AmbientIntensity: 1
  m_AmbientMode: 3
  m_SubtractiveShadowColor: {r: 0.42, g: 0.478, b: 0.627, a: 1}
  m_SkyboxMaterial: {fileID: 0}
  m_HaloStrength: 0.5
  m_FlareStrength: 1
  m_FlareFadeSpeed: 3
  m_HaloTexture: {fileID: 0}
  m_SpotCookie: {fileID: 10001, guid: 0000000000000000e000000000000000, type: 0}
  m_DefaultReflectionMode: 0
  m_DefaultReflectionResolution: 128
  m_ReflectionBounces: 1
  m_ReflectionIntensity: 1
  m_CustomReflection: {fileID: 0}
  m_Sun: {fileID: 0}
  m_IndirectSpecularColor: {r: 0, g: 0, b: 0, a: 1}
  m_UseRadianceAmbientProbe: 0
--- !u!157 &3
LightmapSettings:
  m_ObjectHideFlags: 0
  serializedVersion: 12
  m_GIWorkflowMode: 1
  m_GISettings:
    serializedVersion: 2
    m_BounceScale: 1
    m_IndirectOutputScale: 1
    m_AlbedoBoost: 1
    m_EnvironmentLightingMode: 0
    m_EnableBakedLightmaps: 0
    m_EnableRealtimeLightmaps: 0
  m_LightmapEditorSettings:
    serializedVersion: 12
    m_Resolution: 2
    m_BakeResolution: 40
    m_AtlasSize: 1024
    m_AO: 0
    m_AOMaxDistance: 1
    m_CompAOExponent: 1
    m_CompAOExponentDirect: 0
    m_ExtractAmbientOcclusion: 0
    m_Padding: 2
    m_LightmapParameters: {fileID: 0}
    m_LightmapsBakeMode: 1
    m_TextureCompression: 1
    m_FinalGather: 0
    m_FinalGatherFiltering: 1
    m_FinalGatherRayCount: 256
    m_ReflectionCompression: 2
    m_MixedBakeMode: 2
    m_BakeBackend: 1
    m_PVRSampling: 1
    m_PVRDirectSampleCount: 32
    m_PVRSampleCount: 500
    m_PVRBounces: 2
    m_PVREnvironmentSampleCount: 500
    m_PVREnvironmentReferencePointCount: 2048
    m_PVRFilteringMode: 2
    m_PVRDenoiserTypeDirect: 0
    m_PVRDenoiserTypeIndirect: 0
    m_PVRDenoiserTypeAO: 0
    m_PVRFilterTypeDirect: 0
    m_PVRFilterTypeIndirect: 0
    m_PVRFilterTypeAO: 0
    m_PVREnvironmentMIS: 0
    m_PVRCulling: 1
    m_PVRFilteringGaussRadiusDirect: 1
    m_PVRFilteringGaussRadiusIndirect: 5
    m_PVRFilteringGaussRadiusAO: 2
    m_PVRFilteringAtrousPositionSigmaDirect: 0.5
    m_PVRFilteringAtrousPositionSigmaIndirect: 2
    m_PVRFilteringAtrousPositionSigmaAO: 1
    m_ExportTrainingData: 0
    m_TrainingDataDestination: TrainingData
    m_LightProbeSampleCountMultiplier: 4
  m_LightingDataAsset: {fileID: 0}
  m_LightingSettings: {fileID: 4890085278179872738, guid: e7da0f673105146499c267e12d71d297, type: 2}
--- !u!196 &4
NavMeshSettings:
  serializedVersion: 2
  m_ObjectHideFlags: 0
  m_BuildSettings:
    serializedVersion: 2
    agentTypeID: 0
    agentRadius: 0.5
    agentHeight: 2
    agentSlope: 45
    agentClimb: 0.4
    ledgeDropHeight: 0
    maxJumpAcrossDistance: 0
    minRegionArea: 2
    manualCellSize: 0
    cellSize: 0.16666667
    manualTileSize: 0
    tileSize: 256
    accuratePlacement: 0
    maxJobWorkers: 0
    preserveTilesOutsideBounds: 0
    debug:
      m_Flags: 0
  m_NavMeshData: {fileID: 0}
--- !u!1001 &232112778
PrefabInstance:
  m_ObjectHideFlags: 0
  serializedVersion: 2
  m_Modification:
    m_TransformParent: {fileID: 0}
    m_Modifications:
    - target: {fileID: 4586067091643388, guid: d2f2f92c494bd1c41970791d8041c000, type: 3}
      propertyPath: m_RootOrder
      value: 6
      objectReference: {fileID: 0}
    - target: {fileID: 4586067091643388, guid: d2f2f92c494bd1c41970791d8041c000, type: 3}
      propertyPath: m_LocalPosition.x
      value: 1.244
      objectReference: {fileID: 0}
    - target: {fileID: 4586067091643388, guid: d2f2f92c494bd1c41970791d8041c000, type: 3}
      propertyPath: m_LocalPosition.y
      value: 0.00500001
      objectReference: {fileID: 0}
    - target: {fileID: 4586067091643388, guid: d2f2f92c494bd1c41970791d8041c000, type: 3}
      propertyPath: m_LocalPosition.z
      value: 0
      objectReference: {fileID: 0}
    - target: {fileID: 4586067091643388, guid: d2f2f92c494bd1c41970791d8041c000, type: 3}
      propertyPath: m_LocalRotation.w
      value: 1
      objectReference: {fileID: 0}
    - target: {fileID: 4586067091643388, guid: d2f2f92c494bd1c41970791d8041c000, type: 3}
      propertyPath: m_LocalRotation.x
      value: 0
      objectReference: {fileID: 0}
    - target: {fileID: 4586067091643388, guid: d2f2f92c494bd1c41970791d8041c000, type: 3}
      propertyPath: m_LocalRotation.y
      value: 0
      objectReference: {fileID: 0}
    - target: {fileID: 4586067091643388, guid: d2f2f92c494bd1c41970791d8041c000, type: 3}
      propertyPath: m_LocalRotation.z
      value: 0
      objectReference: {fileID: 0}
    - target: {fileID: 212725499558172736, guid: d2f2f92c494bd1c41970791d8041c000, type: 3}
      propertyPath: m_Materials.Array.data[0]
      value: 
      objectReference: {fileID: 2100000, guid: 9dfc825aed78fcd4ba02077103263b40, type: 2}
    m_RemovedComponents: []
  m_SourcePrefab: {fileID: 100100000, guid: d2f2f92c494bd1c41970791d8041c000, type: 3}
--- !u!1001 &252970351
PrefabInstance:
  m_ObjectHideFlags: 0
  serializedVersion: 2
  m_Modification:
    m_TransformParent: {fileID: 0}
    m_Modifications:
    - target: {fileID: 4642599613617860, guid: dc967d03ca7c44c4899380a87d7ddcbf, type: 3}
      propertyPath: m_RootOrder
      value: 11
      objectReference: {fileID: 0}
    - target: {fileID: 4642599613617860, guid: dc967d03ca7c44c4899380a87d7ddcbf, type: 3}
      propertyPath: m_LocalPosition.x
      value: 1.404
      objectReference: {fileID: 0}
    - target: {fileID: 4642599613617860, guid: dc967d03ca7c44c4899380a87d7ddcbf, type: 3}
      propertyPath: m_LocalPosition.y
      value: -0.0069999844
      objectReference: {fileID: 0}
    - target: {fileID: 4642599613617860, guid: dc967d03ca7c44c4899380a87d7ddcbf, type: 3}
      propertyPath: m_LocalPosition.z
      value: 0
      objectReference: {fileID: 0}
    - target: {fileID: 4642599613617860, guid: dc967d03ca7c44c4899380a87d7ddcbf, type: 3}
      propertyPath: m_LocalRotation.w
      value: 1
      objectReference: {fileID: 0}
    - target: {fileID: 4642599613617860, guid: dc967d03ca7c44c4899380a87d7ddcbf, type: 3}
      propertyPath: m_LocalRotation.x
      value: 0
      objectReference: {fileID: 0}
    - target: {fileID: 4642599613617860, guid: dc967d03ca7c44c4899380a87d7ddcbf, type: 3}
      propertyPath: m_LocalRotation.y
      value: 0
      objectReference: {fileID: 0}
    - target: {fileID: 4642599613617860, guid: dc967d03ca7c44c4899380a87d7ddcbf, type: 3}
      propertyPath: m_LocalRotation.z
      value: 0
      objectReference: {fileID: 0}
    - target: {fileID: 212865073419292432, guid: dc967d03ca7c44c4899380a87d7ddcbf, type: 3}
      propertyPath: m_Materials.Array.data[0]
      value: 
      objectReference: {fileID: 2100000, guid: 9dfc825aed78fcd4ba02077103263b40, type: 2}
    m_RemovedComponents: []
  m_SourcePrefab: {fileID: 100100000, guid: dc967d03ca7c44c4899380a87d7ddcbf, type: 3}
--- !u!1001 &390022341
PrefabInstance:
  m_ObjectHideFlags: 0
  serializedVersion: 2
  m_Modification:
    m_TransformParent: {fileID: 0}
    m_Modifications:
    - target: {fileID: 4860342373884896, guid: eb37e015fa916944c81e05758e6ce0b6, type: 3}
      propertyPath: m_RootOrder
      value: 10
      objectReference: {fileID: 0}
    - target: {fileID: 4860342373884896, guid: eb37e015fa916944c81e05758e6ce0b6, type: 3}
      propertyPath: m_LocalPosition.x
      value: 1.5439999
      objectReference: {fileID: 0}
    - target: {fileID: 4860342373884896, guid: eb37e015fa916944c81e05758e6ce0b6, type: 3}
      propertyPath: m_LocalPosition.y
      value: -0.0069999844
      objectReference: {fileID: 0}
    - target: {fileID: 4860342373884896, guid: eb37e015fa916944c81e05758e6ce0b6, type: 3}
      propertyPath: m_LocalPosition.z
      value: 0
      objectReference: {fileID: 0}
    - target: {fileID: 4860342373884896, guid: eb37e015fa916944c81e05758e6ce0b6, type: 3}
      propertyPath: m_LocalRotation.w
      value: 1
      objectReference: {fileID: 0}
    - target: {fileID: 4860342373884896, guid: eb37e015fa916944c81e05758e6ce0b6, type: 3}
      propertyPath: m_LocalRotation.x
      value: 0
      objectReference: {fileID: 0}
    - target: {fileID: 4860342373884896, guid: eb37e015fa916944c81e05758e6ce0b6, type: 3}
      propertyPath: m_LocalRotation.y
      value: 0
      objectReference: {fileID: 0}
    - target: {fileID: 4860342373884896, guid: eb37e015fa916944c81e05758e6ce0b6, type: 3}
      propertyPath: m_LocalRotation.z
      value: 0
      objectReference: {fileID: 0}
    - target: {fileID: 212983992635026658, guid: eb37e015fa916944c81e05758e6ce0b6, type: 3}
      propertyPath: m_Materials.Array.data[0]
      value: 
      objectReference: {fileID: 2100000, guid: 9dfc825aed78fcd4ba02077103263b40, type: 2}
    m_RemovedComponents: []
  m_SourcePrefab: {fileID: 100100000, guid: eb37e015fa916944c81e05758e6ce0b6, type: 3}
--- !u!1001 &627994721
PrefabInstance:
  m_ObjectHideFlags: 0
  serializedVersion: 2
  m_Modification:
    m_TransformParent: {fileID: 0}
    m_Modifications:
    - target: {fileID: 4173579735538888, guid: 7949930a4be82f14497a46200e300772, type: 3}
      propertyPath: m_RootOrder
      value: 13
      objectReference: {fileID: 0}
    - target: {fileID: 4173579735538888, guid: 7949930a4be82f14497a46200e300772, type: 3}
      propertyPath: m_LocalPosition.x
      value: 1.948
      objectReference: {fileID: 0}
    - target: {fileID: 4173579735538888, guid: 7949930a4be82f14497a46200e300772, type: 3}
      propertyPath: m_LocalPosition.y
      value: -0.007
      objectReference: {fileID: 0}
    - target: {fileID: 4173579735538888, guid: 7949930a4be82f14497a46200e300772, type: 3}
      propertyPath: m_LocalPosition.z
      value: 0
      objectReference: {fileID: 0}
    - target: {fileID: 4173579735538888, guid: 7949930a4be82f14497a46200e300772, type: 3}
      propertyPath: m_LocalRotation.w
      value: 1
      objectReference: {fileID: 0}
    - target: {fileID: 4173579735538888, guid: 7949930a4be82f14497a46200e300772, type: 3}
      propertyPath: m_LocalRotation.x
      value: 0
      objectReference: {fileID: 0}
    - target: {fileID: 4173579735538888, guid: 7949930a4be82f14497a46200e300772, type: 3}
      propertyPath: m_LocalRotation.y
      value: 0
      objectReference: {fileID: 0}
    - target: {fileID: 4173579735538888, guid: 7949930a4be82f14497a46200e300772, type: 3}
      propertyPath: m_LocalRotation.z
      value: 0
      objectReference: {fileID: 0}
    - target: {fileID: 212885705596208536, guid: 7949930a4be82f14497a46200e300772, type: 3}
      propertyPath: m_Materials.Array.data[0]
      value: 
      objectReference: {fileID: 2100000, guid: 9dfc825aed78fcd4ba02077103263b40, type: 2}
    m_RemovedComponents: []
  m_SourcePrefab: {fileID: 100100000, guid: 7949930a4be82f14497a46200e300772, type: 3}
--- !u!1001 &718800894
PrefabInstance:
  m_ObjectHideFlags: 0
  serializedVersion: 2
  m_Modification:
    m_TransformParent: {fileID: 0}
    m_Modifications:
    - target: {fileID: 4625385491732918, guid: 15e42fc786cf33d4e8e26c0543aa563b, type: 3}
      propertyPath: m_RootOrder
      value: 4
      objectReference: {fileID: 0}
    - target: {fileID: 4625385491732918, guid: 15e42fc786cf33d4e8e26c0543aa563b, type: 3}
      propertyPath: m_LocalPosition.x
      value: 0.6549999
      objectReference: {fileID: 0}
    - target: {fileID: 4625385491732918, guid: 15e42fc786cf33d4e8e26c0543aa563b, type: 3}
      propertyPath: m_LocalPosition.y
      value: 0.00500001
      objectReference: {fileID: 0}
    - target: {fileID: 4625385491732918, guid: 15e42fc786cf33d4e8e26c0543aa563b, type: 3}
      propertyPath: m_LocalPosition.z
      value: 0
      objectReference: {fileID: 0}
    - target: {fileID: 4625385491732918, guid: 15e42fc786cf33d4e8e26c0543aa563b, type: 3}
      propertyPath: m_LocalRotation.w
      value: 1
      objectReference: {fileID: 0}
    - target: {fileID: 4625385491732918, guid: 15e42fc786cf33d4e8e26c0543aa563b, type: 3}
      propertyPath: m_LocalRotation.x
      value: 0
      objectReference: {fileID: 0}
    - target: {fileID: 4625385491732918, guid: 15e42fc786cf33d4e8e26c0543aa563b, type: 3}
      propertyPath: m_LocalRotation.y
      value: 0
      objectReference: {fileID: 0}
    - target: {fileID: 4625385491732918, guid: 15e42fc786cf33d4e8e26c0543aa563b, type: 3}
      propertyPath: m_LocalRotation.z
      value: 0
      objectReference: {fileID: 0}
    - target: {fileID: 212668463278289586, guid: 15e42fc786cf33d4e8e26c0543aa563b, type: 3}
      propertyPath: m_Materials.Array.data[0]
      value: 
      objectReference: {fileID: 2100000, guid: 9dfc825aed78fcd4ba02077103263b40, type: 2}
    m_RemovedComponents: []
  m_SourcePrefab: {fileID: 100100000, guid: 15e42fc786cf33d4e8e26c0543aa563b, type: 3}
--- !u!1001 &1099219771
PrefabInstance:
  m_ObjectHideFlags: 0
  serializedVersion: 2
  m_Modification:
    m_TransformParent: {fileID: 0}
    m_Modifications:
    - target: {fileID: 4616545162447660, guid: 0b0c27137eb4d504096874b80ace66bd, type: 3}
      propertyPath: m_RootOrder
      value: 9
      objectReference: {fileID: 0}
    - target: {fileID: 4616545162447660, guid: 0b0c27137eb4d504096874b80ace66bd, type: 3}
      propertyPath: m_LocalPosition.x
      value: 1.676
      objectReference: {fileID: 0}
    - target: {fileID: 4616545162447660, guid: 0b0c27137eb4d504096874b80ace66bd, type: 3}
      propertyPath: m_LocalPosition.y
      value: -0.0069999844
      objectReference: {fileID: 0}
    - target: {fileID: 4616545162447660, guid: 0b0c27137eb4d504096874b80ace66bd, type: 3}
      propertyPath: m_LocalPosition.z
      value: 0
      objectReference: {fileID: 0}
    - target: {fileID: 4616545162447660, guid: 0b0c27137eb4d504096874b80ace66bd, type: 3}
      propertyPath: m_LocalRotation.w
      value: 1
      objectReference: {fileID: 0}
    - target: {fileID: 4616545162447660, guid: 0b0c27137eb4d504096874b80ace66bd, type: 3}
      propertyPath: m_LocalRotation.x
      value: 0
      objectReference: {fileID: 0}
    - target: {fileID: 4616545162447660, guid: 0b0c27137eb4d504096874b80ace66bd, type: 3}
      propertyPath: m_LocalRotation.y
      value: 0
      objectReference: {fileID: 0}
    - target: {fileID: 4616545162447660, guid: 0b0c27137eb4d504096874b80ace66bd, type: 3}
      propertyPath: m_LocalRotation.z
      value: 0
      objectReference: {fileID: 0}
    - target: {fileID: 212146457528546690, guid: 0b0c27137eb4d504096874b80ace66bd, type: 3}
      propertyPath: m_Materials.Array.data[0]
      value: 
      objectReference: {fileID: 2100000, guid: 9dfc825aed78fcd4ba02077103263b40, type: 2}
    m_RemovedComponents: []
  m_SourcePrefab: {fileID: 100100000, guid: 0b0c27137eb4d504096874b80ace66bd, type: 3}
--- !u!1001 &1204676993
PrefabInstance:
  m_ObjectHideFlags: 0
  serializedVersion: 2
  m_Modification:
    m_TransformParent: {fileID: 0}
    m_Modifications:
    - target: {fileID: 4933292759921468, guid: 1740469607c5ef74a9dce354e6c48998, type: 3}
      propertyPath: m_RootOrder
      value: 3
      objectReference: {fileID: 0}
    - target: {fileID: 4933292759921468, guid: 1740469607c5ef74a9dce354e6c48998, type: 3}
      propertyPath: m_LocalPosition.x
      value: 0.78699994
      objectReference: {fileID: 0}
    - target: {fileID: 4933292759921468, guid: 1740469607c5ef74a9dce354e6c48998, type: 3}
      propertyPath: m_LocalPosition.y
      value: 0.00500001
      objectReference: {fileID: 0}
    - target: {fileID: 4933292759921468, guid: 1740469607c5ef74a9dce354e6c48998, type: 3}
      propertyPath: m_LocalPosition.z
      value: 0
      objectReference: {fileID: 0}
    - target: {fileID: 4933292759921468, guid: 1740469607c5ef74a9dce354e6c48998, type: 3}
      propertyPath: m_LocalRotation.w
      value: 1
      objectReference: {fileID: 0}
    - target: {fileID: 4933292759921468, guid: 1740469607c5ef74a9dce354e6c48998, type: 3}
      propertyPath: m_LocalRotation.x
      value: 0
      objectReference: {fileID: 0}
    - target: {fileID: 4933292759921468, guid: 1740469607c5ef74a9dce354e6c48998, type: 3}
      propertyPath: m_LocalRotation.y
      value: 0
      objectReference: {fileID: 0}
    - target: {fileID: 4933292759921468, guid: 1740469607c5ef74a9dce354e6c48998, type: 3}
      propertyPath: m_LocalRotation.z
      value: 0
      objectReference: {fileID: 0}
    - target: {fileID: 212396194626849566, guid: 1740469607c5ef74a9dce354e6c48998, type: 3}
      propertyPath: m_Materials.Array.data[0]
      value: 
      objectReference: {fileID: 2100000, guid: 9dfc825aed78fcd4ba02077103263b40, type: 2}
    m_RemovedComponents: []
  m_SourcePrefab: {fileID: 100100000, guid: 1740469607c5ef74a9dce354e6c48998, type: 3}
--- !u!1001 &1240087339
PrefabInstance:
  m_ObjectHideFlags: 0
  serializedVersion: 2
  m_Modification:
    m_TransformParent: {fileID: 0}
    m_Modifications:
    - target: {fileID: 4498433650416836, guid: a7c8b6f2a4acbd34aa0ea5ae6c7401fa, type: 3}
      propertyPath: m_RootOrder
      value: 14
      objectReference: {fileID: 0}
    - target: {fileID: 4498433650416836, guid: a7c8b6f2a4acbd34aa0ea5ae6c7401fa, type: 3}
      propertyPath: m_LocalPosition.x
      value: 1.812
      objectReference: {fileID: 0}
    - target: {fileID: 4498433650416836, guid: a7c8b6f2a4acbd34aa0ea5ae6c7401fa, type: 3}
      propertyPath: m_LocalPosition.y
      value: -0.0069999844
      objectReference: {fileID: 0}
    - target: {fileID: 4498433650416836, guid: a7c8b6f2a4acbd34aa0ea5ae6c7401fa, type: 3}
      propertyPath: m_LocalPosition.z
      value: 0
      objectReference: {fileID: 0}
    - target: {fileID: 4498433650416836, guid: a7c8b6f2a4acbd34aa0ea5ae6c7401fa, type: 3}
      propertyPath: m_LocalRotation.w
      value: 1
      objectReference: {fileID: 0}
    - target: {fileID: 4498433650416836, guid: a7c8b6f2a4acbd34aa0ea5ae6c7401fa, type: 3}
      propertyPath: m_LocalRotation.x
      value: 0
      objectReference: {fileID: 0}
    - target: {fileID: 4498433650416836, guid: a7c8b6f2a4acbd34aa0ea5ae6c7401fa, type: 3}
      propertyPath: m_LocalRotation.y
      value: 0
      objectReference: {fileID: 0}
    - target: {fileID: 4498433650416836, guid: a7c8b6f2a4acbd34aa0ea5ae6c7401fa, type: 3}
      propertyPath: m_LocalRotation.z
      value: 0
      objectReference: {fileID: 0}
    - target: {fileID: 212922638192599884, guid: a7c8b6f2a4acbd34aa0ea5ae6c7401fa, type: 3}
      propertyPath: m_Materials.Array.data[0]
      value: 
      objectReference: {fileID: 2100000, guid: 9dfc825aed78fcd4ba02077103263b40, type: 2}
    m_RemovedComponents: []
  m_SourcePrefab: {fileID: 100100000, guid: a7c8b6f2a4acbd34aa0ea5ae6c7401fa, type: 3}
--- !u!1001 &1337061587
PrefabInstance:
  m_ObjectHideFlags: 0
  serializedVersion: 2
  m_Modification:
    m_TransformParent: {fileID: 0}
    m_Modifications:
    - target: {fileID: 4736677845459218, guid: 80936324c84277d498ccd724f0e55e94, type: 3}
      propertyPath: m_RootOrder
      value: 8
      objectReference: {fileID: 0}
    - target: {fileID: 4736677845459218, guid: 80936324c84277d498ccd724f0e55e94, type: 3}
      propertyPath: m_LocalPosition.x
      value: 0.93099993
      objectReference: {fileID: 0}
    - target: {fileID: 4736677845459218, guid: 80936324c84277d498ccd724f0e55e94, type: 3}
      propertyPath: m_LocalPosition.y
      value: 0.00500001
      objectReference: {fileID: 0}
    - target: {fileID: 4736677845459218, guid: 80936324c84277d498ccd724f0e55e94, type: 3}
      propertyPath: m_LocalPosition.z
      value: 0
      objectReference: {fileID: 0}
    - target: {fileID: 4736677845459218, guid: 80936324c84277d498ccd724f0e55e94, type: 3}
      propertyPath: m_LocalRotation.w
      value: 1
      objectReference: {fileID: 0}
    - target: {fileID: 4736677845459218, guid: 80936324c84277d498ccd724f0e55e94, type: 3}
      propertyPath: m_LocalRotation.x
      value: 0
      objectReference: {fileID: 0}
    - target: {fileID: 4736677845459218, guid: 80936324c84277d498ccd724f0e55e94, type: 3}
      propertyPath: m_LocalRotation.y
      value: 0
      objectReference: {fileID: 0}
    - target: {fileID: 4736677845459218, guid: 80936324c84277d498ccd724f0e55e94, type: 3}
      propertyPath: m_LocalRotation.z
      value: 0
      objectReference: {fileID: 0}
    - target: {fileID: 212195019842736414, guid: 80936324c84277d498ccd724f0e55e94, type: 3}
      propertyPath: m_Materials.Array.data[0]
      value: 
      objectReference: {fileID: 2100000, guid: 9dfc825aed78fcd4ba02077103263b40, type: 2}
    m_RemovedComponents: []
  m_SourcePrefab: {fileID: 100100000, guid: 80936324c84277d498ccd724f0e55e94, type: 3}
--- !u!1 &1572820397
GameObject:
  m_ObjectHideFlags: 0
  m_CorrespondingSourceObject: {fileID: 0}
  m_PrefabInstance: {fileID: 0}
  m_PrefabAsset: {fileID: 0}
  serializedVersion: 6
  m_Component:
  - component: {fileID: 1572820400}
  - component: {fileID: 1572820399}
  - component: {fileID: 1572820398}
  m_Layer: 0
  m_Name: Main Camera
  m_TagString: MainCamera
  m_Icon: {fileID: 0}
  m_NavMeshLayer: 0
  m_StaticEditorFlags: 0
  m_IsActive: 1
--- !u!81 &1572820398
AudioListener:
  m_ObjectHideFlags: 0
  m_CorrespondingSourceObject: {fileID: 0}
  m_PrefabInstance: {fileID: 0}
  m_PrefabAsset: {fileID: 0}
  m_GameObject: {fileID: 1572820397}
  m_Enabled: 1
--- !u!20 &1572820399
Camera:
  m_ObjectHideFlags: 0
  m_CorrespondingSourceObject: {fileID: 0}
  m_PrefabInstance: {fileID: 0}
  m_PrefabAsset: {fileID: 0}
  m_GameObject: {fileID: 1572820397}
  m_Enabled: 1
  serializedVersion: 2
  m_ClearFlags: 1
  m_BackGroundColor: {r: 0.19215687, g: 0.3019608, b: 0.4745098, a: 0}
  m_projectionMatrixMode: 1
  m_GateFitMode: 2
  m_FOVAxisMode: 0
  m_SensorSize: {x: 36, y: 24}
  m_LensShift: {x: 0, y: 0}
  m_FocalLength: 50
  m_NormalizedViewPortRect:
    serializedVersion: 2
    x: 0
    y: 0
    width: 1
    height: 1
  near clip plane: 0.3
  far clip plane: 1000
  field of view: 60
  orthographic: 1
  orthographic size: 5
  m_Depth: -1
  m_CullingMask:
    serializedVersion: 2
    m_Bits: 4294967295
  m_RenderingPath: -1
  m_TargetTexture: {fileID: 0}
  m_TargetDisplay: 0
  m_TargetEye: 3
  m_HDR: 1
  m_AllowMSAA: 1
  m_AllowDynamicResolution: 0
  m_ForceIntoRT: 0
  m_OcclusionCulling: 1
  m_StereoConvergence: 10
  m_StereoSeparation: 0.022
--- !u!4 &1572820400
Transform:
  m_ObjectHideFlags: 0
  m_CorrespondingSourceObject: {fileID: 0}
  m_PrefabInstance: {fileID: 0}
  m_PrefabAsset: {fileID: 0}
  m_GameObject: {fileID: 1572820397}
  m_LocalRotation: {x: 0, y: 0, z: 0, w: 1}
  m_LocalPosition: {x: 0, y: 0, z: -10}
  m_LocalScale: {x: 1, y: 1, z: 1}
  m_ConstrainProportionsScale: 0
  m_Children: []
  m_Father: {fileID: 0}
  m_RootOrder: 0
  m_LocalEulerAnglesHint: {x: 0, y: 0, z: 0}
--- !u!1001 &1621207863
PrefabInstance:
  m_ObjectHideFlags: 0
  serializedVersion: 2
  m_Modification:
    m_TransformParent: {fileID: 0}
    m_Modifications:
    - target: {fileID: 4820447579516924, guid: ab6891f5e3e61c54fb1b5a692cee6a19, type: 3}
      propertyPath: m_RootOrder
      value: 7
      objectReference: {fileID: 0}
    - target: {fileID: 4820447579516924, guid: ab6891f5e3e61c54fb1b5a692cee6a19, type: 3}
      propertyPath: m_LocalPosition.x
      value: 1.0589999
      objectReference: {fileID: 0}
    - target: {fileID: 4820447579516924, guid: ab6891f5e3e61c54fb1b5a692cee6a19, type: 3}
      propertyPath: m_LocalPosition.y
      value: 0.00500001
      objectReference: {fileID: 0}
    - target: {fileID: 4820447579516924, guid: ab6891f5e3e61c54fb1b5a692cee6a19, type: 3}
      propertyPath: m_LocalPosition.z
      value: 0
      objectReference: {fileID: 0}
    - target: {fileID: 4820447579516924, guid: ab6891f5e3e61c54fb1b5a692cee6a19, type: 3}
      propertyPath: m_LocalRotation.w
      value: 1
      objectReference: {fileID: 0}
    - target: {fileID: 4820447579516924, guid: ab6891f5e3e61c54fb1b5a692cee6a19, type: 3}
      propertyPath: m_LocalRotation.x
      value: 0
      objectReference: {fileID: 0}
    - target: {fileID: 4820447579516924, guid: ab6891f5e3e61c54fb1b5a692cee6a19, type: 3}
      propertyPath: m_LocalRotation.y
      value: 0
      objectReference: {fileID: 0}
    - target: {fileID: 4820447579516924, guid: ab6891f5e3e61c54fb1b5a692cee6a19, type: 3}
      propertyPath: m_LocalRotation.z
      value: 0
      objectReference: {fileID: 0}
    - target: {fileID: 212328674558347542, guid: ab6891f5e3e61c54fb1b5a692cee6a19, type: 3}
      propertyPath: m_Materials.Array.data[0]
      value: 
      objectReference: {fileID: 2100000, guid: 9dfc825aed78fcd4ba02077103263b40, type: 2}
    m_RemovedComponents: []
  m_SourcePrefab: {fileID: 100100000, guid: ab6891f5e3e61c54fb1b5a692cee6a19, type: 3}
--- !u!1001 &1680843360
PrefabInstance:
  m_ObjectHideFlags: 0
  serializedVersion: 2
  m_Modification:
    m_TransformParent: {fileID: 0}
    m_Modifications:
    - target: {fileID: 4803365131872970, guid: 2ce1fb9d977e03b49a1ce0113faf945e, type: 3}
      propertyPath: m_RootOrder
      value: 2
      objectReference: {fileID: 0}
    - target: {fileID: 4803365131872970, guid: 2ce1fb9d977e03b49a1ce0113faf945e, type: 3}
      propertyPath: m_LocalPosition.x
      value: 0
      objectReference: {fileID: 0}
    - target: {fileID: 4803365131872970, guid: 2ce1fb9d977e03b49a1ce0113faf945e, type: 3}
      propertyPath: m_LocalPosition.y
      value: 0
      objectReference: {fileID: 0}
    - target: {fileID: 4803365131872970, guid: 2ce1fb9d977e03b49a1ce0113faf945e, type: 3}
      propertyPath: m_LocalPosition.z
      value: 0
      objectReference: {fileID: 0}
    - target: {fileID: 4803365131872970, guid: 2ce1fb9d977e03b49a1ce0113faf945e, type: 3}
      propertyPath: m_LocalRotation.w
      value: 1
      objectReference: {fileID: 0}
    - target: {fileID: 4803365131872970, guid: 2ce1fb9d977e03b49a1ce0113faf945e, type: 3}
      propertyPath: m_LocalRotation.x
      value: 0
      objectReference: {fileID: 0}
    - target: {fileID: 4803365131872970, guid: 2ce1fb9d977e03b49a1ce0113faf945e, type: 3}
      propertyPath: m_LocalRotation.y
      value: 0
      objectReference: {fileID: 0}
    - target: {fileID: 4803365131872970, guid: 2ce1fb9d977e03b49a1ce0113faf945e, type: 3}
      propertyPath: m_LocalRotation.z
      value: 0
      objectReference: {fileID: 0}
    - target: {fileID: 212816092555092974, guid: 2ce1fb9d977e03b49a1ce0113faf945e, type: 3}
      propertyPath: m_Materials.Array.data[0]
      value: 
      objectReference: {fileID: 2100000, guid: 9dfc825aed78fcd4ba02077103263b40, type: 2}
    - target: {fileID: 212975254239921132, guid: 2ce1fb9d977e03b49a1ce0113faf945e, type: 3}
      propertyPath: m_Materials.Array.data[0]
      value: 
      objectReference: {fileID: 2100000, guid: 9dfc825aed78fcd4ba02077103263b40, type: 2}
    - target: {fileID: 212975623519947666, guid: 2ce1fb9d977e03b49a1ce0113faf945e, type: 3}
      propertyPath: m_Materials.Array.data[0]
      value: 
      objectReference: {fileID: 2100000, guid: 9dfc825aed78fcd4ba02077103263b40, type: 2}
    m_RemovedComponents: []
  m_SourcePrefab: {fileID: 100100000, guid: 2ce1fb9d977e03b49a1ce0113faf945e, type: 3}
--- !u!1001 &1690128584
PrefabInstance:
  m_ObjectHideFlags: 0
  serializedVersion: 2
  m_Modification:
    m_TransformParent: {fileID: 0}
    m_Modifications:
    - target: {fileID: 4469022170149554, guid: 48e06088b7e195f40898a828bd389ec3, type: 3}
      propertyPath: m_RootOrder
      value: 12
      objectReference: {fileID: 0}
    - target: {fileID: 4469022170149554, guid: 48e06088b7e195f40898a828bd389ec3, type: 3}
      propertyPath: m_LocalPosition.x
      value: 2.133
      objectReference: {fileID: 0}
    - target: {fileID: 4469022170149554, guid: 48e06088b7e195f40898a828bd389ec3, type: 3}
      propertyPath: m_LocalPosition.y
      value: -0.0069999844
      objectReference: {fileID: 0}
    - target: {fileID: 4469022170149554, guid: 48e06088b7e195f40898a828bd389ec3, type: 3}
      propertyPath: m_LocalPosition.z
      value: 0
      objectReference: {fileID: 0}
    - target: {fileID: 4469022170149554, guid: 48e06088b7e195f40898a828bd389ec3, type: 3}
      propertyPath: m_LocalRotation.w
      value: 1
      objectReference: {fileID: 0}
    - target: {fileID: 4469022170149554, guid: 48e06088b7e195f40898a828bd389ec3, type: 3}
      propertyPath: m_LocalRotation.x
      value: 0
      objectReference: {fileID: 0}
    - target: {fileID: 4469022170149554, guid: 48e06088b7e195f40898a828bd389ec3, type: 3}
      propertyPath: m_LocalRotation.y
      value: 0
      objectReference: {fileID: 0}
    - target: {fileID: 4469022170149554, guid: 48e06088b7e195f40898a828bd389ec3, type: 3}
      propertyPath: m_LocalRotation.z
      value: 0
      objectReference: {fileID: 0}
    - target: {fileID: 212511831395615402, guid: 48e06088b7e195f40898a828bd389ec3, type: 3}
      propertyPath: m_Materials.Array.data[0]
      value: 
      objectReference: {fileID: 2100000, guid: 9dfc825aed78fcd4ba02077103263b40, type: 2}
    m_RemovedComponents: []
  m_SourcePrefab: {fileID: 100100000, guid: 48e06088b7e195f40898a828bd389ec3, type: 3}
--- !u!1001 &1789875472
PrefabInstance:
  m_ObjectHideFlags: 0
  serializedVersion: 2
  m_Modification:
    m_TransformParent: {fileID: 0}
    m_Modifications:
    - target: {fileID: 4693026105291868, guid: 508a3a333f10ebc4aa37b5c8b3aa27e8, type: 3}
      propertyPath: m_RootOrder
      value: 5
      objectReference: {fileID: 0}
    - target: {fileID: 4693026105291868, guid: 508a3a333f10ebc4aa37b5c8b3aa27e8, type: 3}
      propertyPath: m_LocalPosition.x
      value: 0.5149999
      objectReference: {fileID: 0}
    - target: {fileID: 4693026105291868, guid: 508a3a333f10ebc4aa37b5c8b3aa27e8, type: 3}
      propertyPath: m_LocalPosition.y
      value: 0.00500001
      objectReference: {fileID: 0}
    - target: {fileID: 4693026105291868, guid: 508a3a333f10ebc4aa37b5c8b3aa27e8, type: 3}
      propertyPath: m_LocalPosition.z
      value: 0
      objectReference: {fileID: 0}
    - target: {fileID: 4693026105291868, guid: 508a3a333f10ebc4aa37b5c8b3aa27e8, type: 3}
      propertyPath: m_LocalRotation.w
      value: 1
      objectReference: {fileID: 0}
    - target: {fileID: 4693026105291868, guid: 508a3a333f10ebc4aa37b5c8b3aa27e8, type: 3}
      propertyPath: m_LocalRotation.x
      value: 0
      objectReference: {fileID: 0}
    - target: {fileID: 4693026105291868, guid: 508a3a333f10ebc4aa37b5c8b3aa27e8, type: 3}
      propertyPath: m_LocalRotation.y
      value: 0
      objectReference: {fileID: 0}
    - target: {fileID: 4693026105291868, guid: 508a3a333f10ebc4aa37b5c8b3aa27e8, type: 3}
      propertyPath: m_LocalRotation.z
      value: 0
      objectReference: {fileID: 0}
    - target: {fileID: 212775057399395082, guid: 508a3a333f10ebc4aa37b5c8b3aa27e8, type: 3}
      propertyPath: m_Materials.Array.data[0]
      value: 
      objectReference: {fileID: 2100000, guid: 9dfc825aed78fcd4ba02077103263b40, type: 2}
    m_RemovedComponents: []
  m_SourcePrefab: {fileID: 100100000, guid: 508a3a333f10ebc4aa37b5c8b3aa27e8, type: 3}
--- !u!1001 &1949854752
PrefabInstance:
  m_ObjectHideFlags: 0
  serializedVersion: 2
  m_Modification:
    m_TransformParent: {fileID: 0}
    m_Modifications:
    - target: {fileID: 4193583667243190, guid: 401d8aca9e846254890399f66cd7de66, type: 3}
      propertyPath: m_RootOrder
      value: 1
      objectReference: {fileID: 0}
    - target: {fileID: 4193583667243190, guid: 401d8aca9e846254890399f66cd7de66, type: 3}
      propertyPath: m_LocalPosition.x
      value: -0.898
      objectReference: {fileID: 0}
    - target: {fileID: 4193583667243190, guid: 401d8aca9e846254890399f66cd7de66, type: 3}
      propertyPath: m_LocalPosition.y
      value: 0
      objectReference: {fileID: 0}
    - target: {fileID: 4193583667243190, guid: 401d8aca9e846254890399f66cd7de66, type: 3}
      propertyPath: m_LocalPosition.z
      value: 0
      objectReference: {fileID: 0}
    - target: {fileID: 4193583667243190, guid: 401d8aca9e846254890399f66cd7de66, type: 3}
      propertyPath: m_LocalRotation.w
      value: 1
      objectReference: {fileID: 0}
    - target: {fileID: 4193583667243190, guid: 401d8aca9e846254890399f66cd7de66, type: 3}
      propertyPath: m_LocalRotation.x
      value: 0
      objectReference: {fileID: 0}
    - target: {fileID: 4193583667243190, guid: 401d8aca9e846254890399f66cd7de66, type: 3}
      propertyPath: m_LocalRotation.y
      value: 0
      objectReference: {fileID: 0}
    - target: {fileID: 4193583667243190, guid: 401d8aca9e846254890399f66cd7de66, type: 3}
      propertyPath: m_LocalRotation.z
      value: 0
      objectReference: {fileID: 0}
    - target: {fileID: 212592764215928704, guid: 401d8aca9e846254890399f66cd7de66, type: 3}
      propertyPath: m_Materials.Array.data[0]
      value: 
      objectReference: {fileID: 2100000, guid: 9dfc825aed78fcd4ba02077103263b40, type: 2}
    - target: {fileID: 212833696140276620, guid: 401d8aca9e846254890399f66cd7de66, type: 3}
      propertyPath: m_Materials.Array.data[0]
      value: 
      objectReference: {fileID: 2100000, guid: 9dfc825aed78fcd4ba02077103263b40, type: 2}
    - target: {fileID: 212952195174925470, guid: 401d8aca9e846254890399f66cd7de66, type: 3}
      propertyPath: m_Materials.Array.data[0]
      value: 
      objectReference: {fileID: 2100000, guid: 9dfc825aed78fcd4ba02077103263b40, type: 2}
    m_RemovedComponents: []
  m_SourcePrefab: {fileID: 100100000, guid: 401d8aca9e846254890399f66cd7de66, type: 3}
