%YAML 1.1
%TAG !u! tag:unity3d.com,2011:
--- !u!78 &1
TagManager:
  serializedVersion: 2
  tags:
  - Enemy
  - EnemyBullet
  - PlayerBullet
  - PauseMenu
  - Boss
  - Point
  - Wall
  layers:
  - Default
  - TransparentFX
  - Ignore Raycast
  - 
  - Water
  - UI
  - Momement
  - EnemyLayer
  - PlayerBullet
  - Player
  - EnemyBullet
  - Wall
  - Boss
  - BossBullet
  - 
  - 
  - 
  - 
  - 
  - 
  - 
  - 
  - 
  - 
  - 
  - 
  - 
  - 
  - 
  - 
  - 
  - 
  m_SortingLayers:
  - name: Default
    uniqueID: 0
    locked: 0
